<?xml version="1.0" encoding="UTF-8" standalone="no"?>
<svg width="26px" height="26px" viewBox="0 0 26 26" version="1.1" xmlns="http://www.w3.org/2000/svg" xmlns:xlink="http://www.w3.org/1999/xlink">
    <!-- Generator: Sketch 3.8.2 (29753) - http://www.bohemiancoding.com/sketch -->
    <title>Page 1</title>
    <desc>Created with Sketch.</desc>
    <defs></defs>
    <g id="•-Stream-V2.0" stroke="none" stroke-width="1" fill="none" fill-rule="evenodd">
        <g id="•-D-Black-|-White-Info-Overlay" transform="translate(-636.000000, -658.000000)" fill="#FFFFFF">
            <g id="Group-14" transform="translate(614.000000, 636.000000)">
                <g id="Page-1" transform="translate(35.000000, 35.000000) scale(-1, 1) translate(-35.000000, -35.000000) translate(22.000000, 22.000000)">
                    <path d="M20.3080731,15.347428 L23.9640929,11.6968227 C26.6311703,9.03473059 26.6311703,4.70209572 23.9640929,2.04000362 C21.2973153,-0.622986513 16.9578425,-0.622986513 14.2910649,2.04000362 L9.01486392,7.30748388 C6.34778649,9.96961875 6.34778649,14.3022109 9.01486392,16.9643457 C9.40863328,17.3577668 9.83966787,17.6912766 10.2957601,17.9683819 L13.1203367,15.1481089 C12.5823038,15.0196484 12.0719842,14.7486582 11.6531143,14.3307339 C10.4408804,13.1204937 10.4408804,11.1510365 11.6531143,9.94109572 L16.9292725,4.6735727 C18.1415064,3.46333257 20.1142082,3.46333257 21.3261423,4.6735727 C22.5383763,5.88381283 22.5383763,7.85297072 21.3261423,9.06321086 L19.7760797,10.6110234 C20.4148145,12.1118819 20.5913746,13.762497 20.3080731,15.347428 Z M5.65655914,10.6596964 L2.00053937,14.3100023 C-0.666837891,16.9723937 -0.666837891,21.3047293 2.00053937,23.9671207 C4.66705997,26.6298543 9.00678979,26.6298543 11.6735674,23.9671207 L16.9494685,18.6996405 C19.616546,16.0372062 19.616289,11.7049135 16.9494685,9.04277862 C16.555999,8.64935757 16.1249644,8.3158477 15.6688722,8.03874243 L12.8442956,10.8590155 C13.3820287,10.9877326 13.8923483,11.2582095 14.311518,11.6763905 C15.5237519,12.8866306 15.5237519,14.8557885 14.311518,16.0660286 L9.03505997,21.3335516 C7.82282603,22.5437918 5.85042405,22.5437918 4.63819012,21.3335516 C3.42595618,20.1233115 3.42595618,18.1541536 4.63819012,16.9439135 L6.18855255,15.3964003 C5.54951796,13.8955418 5.37295783,12.2446273 5.65655914,10.6596964 Z" id="Combined-Shape"></path>
                </g>
            </g>
        </g>
    </g>
</svg>