<?xml version="1.0" encoding="UTF-8" standalone="no"?>
<svg width="47px" height="68px" viewBox="0 0 47 68" version="1.1" xmlns="http://www.w3.org/2000/svg" xmlns:xlink="http://www.w3.org/1999/xlink">
    <!-- Generator: Sketch 3.6.1 (26313) - http://www.bohemiancoding.com/sketch -->
    <title>Page 1</title>
    <desc>Created with Sketch.</desc>
    <defs>
        <path id="path-1" d="M0,0.0200886263 L46.9812,0.0200886263 L46.9812,68 L0,68"></path>
    </defs>
    <g id="•-Blue-/-White" stroke="none" stroke-width="1" fill="none" fill-rule="evenodd">
        <g id="Site-02-Desktop---Black-|-White---Montserat-Copy-2" transform="translate(-175.000000, -4097.000000)">
            <g id="•-Location" transform="translate(-69.000000, 3726.000000)">
                <g id="Page-1" transform="translate(244.000000, 371.000000)">
                    <g id="Group-3">
                        <mask id="mask-2" fill="white">
                            <use xlink:href="#path-1"></use>
                        </mask>
                        <g id="Clip-2"></g>
                        <path d="M23.4905802,40.757161 C14.8836434,40.757161 7.90636968,33.6744136 7.90636968,24.9373678 C7.90636968,16.200322 14.8836434,9.11757459 23.4905802,9.11757459 C32.0975171,9.11757459 39.0747907,16.200322 39.0747907,24.9373678 C39.0747907,33.6744136 32.0975171,40.757161 23.4905802,40.757161 M23.4902834,0.0201388479 C10.0321549,0.0201388479 -1.97894733e-05,12.016062 -1.97894733e-05,25.8743013 C-1.97894733e-05,43.4475303 23.4902834,68.0000502 23.4902834,68.0000502 C23.4902834,68.0000502 46.9811802,43.4475303 46.9811802,25.8743013 C46.9811802,12.2024845 36.9484118,0.0201388479 23.4902834,0.0201388479" id="Fill-1" fill="#75B2CE" mask="url(#mask-2)"></path>
                    </g>
                    <path d="M23.4900756,10.7752679 C15.8234356,10.7752679 9.60617663,17.0906298 9.60617663,24.8797938 C9.60617663,32.6681542 15.8234356,38.9844201 23.4900756,38.9844201 C31.1583977,38.9844201 37.3756566,32.6673507 37.3756566,24.8797938 C37.3756566,17.0898263 31.1583977,10.7752679 23.4900756,10.7752679" id="Fill-4" fill="#FFFFFF"></path>
                    <path d="M23.4900839,38.7474384 C15.9527843,38.7474384 9.8404138,32.5377314 9.8404138,24.8808635 C9.8404138,17.2230082 15.9527843,11.0141898 23.4900839,11.0141898 C31.0290373,11.0141898 37.1414078,17.2222182 37.1414078,24.8808635 C37.1414078,32.5369414 31.0290373,38.7474384 23.4900839,38.7474384 M23.4905703,9.3844429 C15.0288371,9.3844429 8.16927378,16.3477006 8.16927378,24.9373477 C8.16927378,33.5269949 15.0288371,40.4902525 23.4905703,40.4902525 C31.9523035,40.4902525 38.8118669,33.5269949 38.8118669,24.9373477 C38.8118669,16.3477006 31.9523035,9.3844429 23.4905703,9.3844429" id="Fill-6" fill="#FFFFFF"></path>
                </g>
            </g>
        </g>
    </g>
</svg>